digraph G {

    add_material->draw_stator
    draw_stator->draw_rotor
    draw_rotor->split_model
    split_model->assign_material
    assign_material->setup_CS
    setup_CS->boundary_setup
    boundary_setup->model_setup
    model_setup->analysis_setup
    analysis_setup->AnalyzeAll
    AnalyzeAll->output_setup
}